Unit,ColumnMin,Min,Max,Min(avg),Max(avg),Assumed,Rock type,Notes,Carter Conductivity,,,USGS Lithology,,pink,Evaporite
Monongahela Fm.,0,0,40,0,16,8,"Shale, Mudstone, Siltstone",In 40% of the column,1.78,,,,,blue,Carbonate
Conemaugh Fm. With interbedded Ames limestone and Brush Creek ,0,0,140,0,70,35,"Shale, Mudstone, Siltstone & Carbonate",In 50% of the column,1.78,,,,,gray,"Shale, Mudstone, Siltstone"
Breathitt Fm.,175,175,175,175,175,175,"Interbedded Ss, Slt, Sh",,3.58,,,conglomerate,,yellow,Sandstone
Pennington Fm.,0,0,25,0,25,12.5,"Shale, Mudstone, Siltstone",,1.92,,,"Highly variegated clay shale, distinctive; contains siltstone and locally gray, fine-grained sandstone",,orange,Conglomerate
Carter Caves Sandstone,0,0,30,0,18,9,Sandstone,In 60% of the column,4.27,,,,,lt. brown,"Interbedded Ss, Slt, Sh"
Newman Limestone,0,0,55,0,55,27.5,Limestone,,2.91,,,,,dk brown,Metamorphic
Borden Fm.: Renfro/Nada/Cowbell/Nancy/Farmers,50,50,200,50,200,125,"Shale, Mudstone, Siltstone & Sandstone",40% sandstone,2.34,,,Mostly siltstone; lenses of crinodial limestone in upper part,,green,Volcanic
Sunbury Shale,5,5,5,5,5,5,Shale,,1.5,,,,,teal ,Chert
Bedford Shale OR Berea sandstone/Bedford Shale OR Berea Sandstone,0,0,50,0,42.5,21.25,Shale and Sandstone,,2.885,,,,,,
Ohio Shale,60,60,240,60,240,150,Shale,,1.5,,,,,,
Olentangy Fm.,5,5,15,5,15,10,"Shale, Mudstone, Siltstone",,1.5,,,,,,
Onondaga Limestone,0,0,12,0,3.6,1.8,Limestone,In 30% of the column,2.91,,,,,,
Helderberg Limestone,0,0,15,0,4.5,2.25,Limestone,In 30% of the column,2.91,,,,,,
Salina Dolomite,0,0,75,0,60,30,Dolomite,In 80% of the column,4.5,,,,,,
Lockport Dolomite,0,0,35,0,35,17.5,Dolomite,In 80% of the column,4.5,,,,,,
Bisher Dolomite OR Keefer Sandstone,0,0,15,5,11.5,8.25,Dolomite and Sandstone,Dolomite in 40% of column. ,4.362,,,,,,
Crab Orchard Fm. OR Rose Hill Fm.,60,60,90,67.5,90,78.75,"Shale, Mudstone, Siltstone",,1.6939,,,,,,
Brassfield Dolomite,9,9,12,9,12,10.5,Dolomite,,4.5,,,,,,
Juniata Fm. OR Drakes Fm.,6,6,18,7.5,18,12.75,"Shale, Mudstone, Siltstone",,2.55,,,"dolostone, shale, limestone",,,
Bull Fork Fm./Grant Lake Limestone/Fairview Fm./Kope and Clays Ferry Fms. OR Martinsburg Fm.,150,150,270,210,245,227.5,Carbonate,,3.705,,,,,,
Lexington Limestone,45,45,75,45,75,60,Limestone,,2.91,,,,,,
High Bridge Group: Tyrone Limestone and Camp Nelson Limestone,180,180,195,180,195,187.5,Limestone,,2.91,,,,,,
Wells Creek Dolomite,5,5,24,5,24,14.5,Dolomite,,4.5,,,,,,
St. Peter Sandstone,0,0,23,0,11.5,5.75,Sandstone,In 50% of the column,4.27,,,,,,
Knox Gp.:Beekmantown Dolomite,120,120,210,120,210,165,Dolomite,,4.5,,,,,,
Knox Gp.:Rose Run Sandstone,3,3,9,3,9,6,Sandstone,,4.27,,,,,,
Knox Gp.:Copper Ridge Dolomite,180,180,280,180,280,230,Dolomite,"Questionable thicknesses because they were written as ""280-180"" on the column;whereas they are usually written from min to max. ",4.5,,,,,,
Conasauga Fm.,15,15,15,15,15,15,Carbonate,,3.705,,,,,,
Rome Fm.,90,90,90,90,90,90,"Shale, Mudstone, Siltstone",,1.78,,,,,,
basal sandstone,6,6,6,6,6,6,Sandstone,,4.27,,,,,,
,,,,,,,,,,,,,,,
Total Thickness,,,,1238,2256.6,1747.3,,,,,,,,,
