Unit,ColumnMin,Min,Max,Min(avg),Max(avg),Assumed,Rock type,Notes,Shope Conductivity,Carter Conductivity,,USGS Lithology,,pink,Evaporite,,,,,,,,,,,,,,,,,,
Canadaway Gp,0,0,335,0,50.25,25.125,"Sh, Mud, Slt",*Mixed shale and sandy shale from Joyner et al. (In 15% of the column),1.979,1.83,,"Sh, Slt",,blue,Carbonate,,,,,,,,,,,,,,,,,,
Slide Mountain ,0,0,300,0,150,75,"Ss, Slt, Sh",*Impure Sand and shale from Joyner et al. (In 50% of the column),2.623,3.30,,"Ss, Sh, Cong",,gray,"Shale, Mudstone, Siltstone",,,,,,,,,,,,,,,,,,
West Falls Gp,762,762,792,762,792,777,"Ss, Slt, Sh",* Joyner et al impure SS and Blk Sh from Cercone et al,2.410,1.643060001,,"Ss, Blk Sh, Sh",,yellow,Sandstone,,,,,,,,,,,,,,,,,,
Sonyea Gp,200,200,240,200,240,220,"Ss, Slt, Sh",* Shale from Joyner et al and blk shale from Cercone,1.219,1.36,,"Sh, Blk Sh, Slt, Ls",,orange,Conglomerate,,,,,,,,,,,,,,,,,,
Genesee Gp: undifferentiated,227,227,410,227,410,318.5,"Ss, Slt, Sh",*Shale and Ls from Joyner et al,1.837,1.66,,"Sh, Ls, Slt, Blk Sh",,lt. brown,"Interbedded Ss, Slt, Sh",,,,,,,,,,,,,,,,,,
Genesee Gp: Geneseo Sh,3,3,40,3,40,21.5,Sh,*Shale and Ls from Joyner et al,1.837,1.66,,"Sh, Ls, Slt, Blk Sh",,dk brown,Metamorphic,,,,,,,,,,,,,,,,,,
Tully Ls,6,6,30,6,30,18,Carbonate,*Ls from Joyner et al,2.447,2.91,,Ls,,green,Volcanic,,,,,,,,,,,,,,,,,,
Hamilton Gp.: Moscow ,45,45,75,45,75,60,"Sh, Mud, Slt",*Sh and Ss from Joyner et al.,2.225,1.95,,"Sh, Ss",,teal ,Chert,,,,,,,,,,,,,,,,,,
Hamilton Gp.: Ludlowville,85,85,100,85,100,92.5,"Sh, Mud, Slt",*Shale and Ls from Joyner et al,1.837,1.77,,"Sh, Ls, Ss, Blk Sh",,,,,,,,,,,,,,,,,,,,,
Hamilton Gp.: Skaneateles,90,90,170,90,170,130,"Sh, Mud, Slt",*Shale and Ls from Joyner et al,1.837,1.55,,"Sh, Ls, Blk Sh",,,,,,,,,,,,,,,,,,,,,
Hamilton Gp.: Marcellus,30,30,170,30,170,100,"Sh, Mud, Slt",*Black Sh from Cercone and Ls from Joyner et al,1.519,1.34,,"Blk Sh, Ls, Sh, Ss",,,,,,,,,,,,,,,,,,,,,
Onondaga Ls,21,21,27,21,27,24,Carbonate,*Ls and Ss from Joyner et al,2.835,3.34,,"Ls, Ss, Chert",,,,,,,,,,,,,,,,,,,,,
Schoharie,0,0,20,0,4,2,Carbonate,*Shale and Ls from Joyner et al (In 20% of the column),1.837,2.21,,"Sh, Ls",,,,,,,,,,,,,,,,,,,,,
Carlisle Center,60,60,60,60,60,60,"Sh, Mud, Slt",*Siltstone plus Joyner value for Sh,2.252,2.25,,"Slt, Sh, Ls",,,,,,,,,,,,,,,,,,,,,
Esopus,0,0,100,0,50,25,"Sh, Mud, Slt",*Shale and Ls from Joyner et al (In 50% of the column),1.837,2.25,,"Sh, Ls, Slt",,,,,,,,,,,,,,,,,,,,,
Oriskany Ss,2,2,5,2,5,3.5,Ss,*Ss and Ls from Joyner,3.029,3.57,,"Ss, Ls",,,,,,,,,,,,,,,,,,,,,
Helderberg Gp:Port Ewen,0,0,3,0,3,1.5,Carbonate,*Ls from Joyner et al and then average dol,3.202,3.46,,"Ls, Dol, Ss, Sh, Cong",,,,,,,,,,,,,,,,,,,,,
Helderberg Gp: Becraft Ls,15,15,15,15,15,15,Limestone,*Ls from Joyner et al and then average dol,3.202,3.71,,"Ls, Dol",,,,,,,,,,,,,,,,,,,,,
Helderberg Gp: New Scotland,0,0,18,0,4.5,2.25,Limestone,*Ls from Joyner et al and then average dol (In 25% of the column),3.202,3.71,,"Ls, Dol",,,,,,,,,,,,,,,,,,,,,
Helderberg Gp: Kalkberg Ls,12,12,18,12,18,15,Limestone,*Ls from Joyner et al and then average dol,3.202,3.71,,"Ls, Dol",,,,,,,,,,,,,,,,,,,,,
Helderberg Gp: Coeymans Ls,4,4,30,4,30,17,Limestone,*Ls from Joyner et al and then average dol,3.202,3.71,,"Ls, Dol",,,,,,,,,,,,,,,,,,,,,
Helderberg Gp: Manlius Ls,12,12,30,12,30,21,Limestone,*Ls from Joyner et al and then average dol,3.202,3.34,,"Ls, Dol",,,,,,,,,,,,,,,,,,,,,
Rondout ,14,14,23,14,23,18.5,Carbonate,,2.761,2.60,,"Slt, Ls, Ss, Dol, Sh",,,,,,,,,,,,,,,,,,,,,
Salina Gp: Bertie,20,20,25,20,25,22.5,Carbonate,,3.287,2.54,,"Dol, Sh",,,,,,,,,,,,,,,,,,,,,
Salina Gp: Camillus ,40,40,75,40,75,57.5,"Sh, Mud, Slt",,3.287,2.63,,"Dol, Sh, Ls",,,,,,,,,,,,,,,,,,,,,
Salina Gp: Syracuse,60,60,400,60,400,230,Evaporite,,2.763,1.94,,"Sh, Dol, Evaporite, Blk Sh",,,,,,,,,,,,,,,,,,,,,
Salina Gp: Vernon ,150,150,300,150,300,225,"Sh, Mud, Slt",,2.763,1.94,,"Sh, Dol, Evaporite, Blk Sh",,,,,,,,,,,,,,,,,,,,,
Lockport Gp,25,25,45,25,45,35,Carbonate,,3.681,3.72,,"Dol, Ls",,,,,,,,,,,,,,,,,,,,,
Clinton Gp:Rochester Sh OR Herkimer Ss,22,22,45,26,37.5,31.75,Sh/Ss,,2.763,1.67,,"Sh, Dol, Blk Sh, Calcarenite",,,,,,,,,,,,,,,,,,,,,
Clinton Gp: undifferentiated,48,48,55,48,55,51.5,"Ss, Slt, Sh",,2.510,3.45,,"Sh, Ss, Chemical, Cong",,,,,,,,,,,,,,,,,,,,,
Grimsby Ss,0,0,18,0,9,4.5,Ss,In 50% of the column,2.907,2.46,,"Ss, Sh",,,,,,,,,,,,,,,,,,,,,
Queenston ,0,0,238,0,95.2,47.6,"Sh, Mud, Slt",In 40% of the column,2.510,1.86,,"Sh, Ss, Slt, Cong, Chemical",,,,,,,,,,,,,,,,,,,,,
Lorraine ,162,162,274,162,274,218,"Ss, Slt, Sh",*Slt and Dark Grey Sh from Cercone,2.160,1.86,,"Slt, Gr Sh",,,,,,,,,,,,,,,,,,,,,
Utica,21,21,91,21,91,56,"Sh, Mud, Slt",,0.900,0.90,,Blk Sh,,,,,,,,,,,,,,,,,,,,,
Trenton Gp,137,137,213,137,213,175,Carbonate,,2.308,2.11,,"Ls, Sh",,,,,,,,,,,,,,,,,,,,,
Black River Gp,46,46,137,46,137,91.5,Carbonate,,2.701,2.91,,Ls,,,,,,,,,,,,,,,,,,,,,
Tribes Hill ,0,0,11,0,3.3,1.65,Carbonate,In 30% of the column,3.681,3.79,,"Dol, Ls, Ss",,,,,,,,,,,,,,,,,,,,,
Little Falls,20,20,168,20,168,94,Carbonate,,3.681,3.79,,"Dol, Ls, Ss",,,,,,,,,,,,,,,,,,,,,
Theresa,20,20,100,20,100,60,Carbonate,,4.080,4.34,,"Dol, Ss, Sh",,,,,,,,,,,,,,,,,,,,,
Potsdam Fm,0,0,107,0,53.5,26.75,Ss,In 50% of the column,3.700,4.27,,Ss,,,,,,,,,,,,,,,,,,,,,
,,,,,,,,,,,,,,,,,,,,,,,,,,,,,,,,,
,,2359,5313,2363,4578.25,3470.625,,,,,,,,,,,,,,,,,,,,,,,,,,,
,,,,,,,,,,,,,,,,,,,,,,,,,,,,,,,,,
,,,,,,,,,,,,,,,,,,,,,,,,,,,,,,,,,
,,,,,,,,,,,,,,,,,,,,,,,,,,,,,,,,,
,,,,,,,,,,,,,,,,,,,,,,,,,,,,,,,,,
,,,,,,,,,,,,,,,,,,,,,,,,,,,,,,,,,
,,,,,,,,,,,,,,,,,,,,,,,,,,,,,,,,,
,,,,,,,,,,,,,,,,,,,,,,,,,,,,,,,,,
,,,,,,,,,,,,,,,,,,,,,,,,,,,,,,,,,
,,,,,,,,,,,,,,,,,,,,,,,,,,,,,,,,,
,,,,,,,,,,,,,,,,,,,,,,,,,,,,,,,,,
,,,,,,,,,,,,,,,,,,,,,,,,,,,,,,,,,
,,,,,,,,,,,,,,,,,,,,,,,,,,,,,,,,,
,,,,,,,,,,,,,,,,,,,,,,,,,,,,,,,,,
,,,,,,,,,,,,,,,,,,,,,,,,,,,,,,,,,
,,,,,,,,,,,,,,,,,,,,,,,,,,,,,,,,,
,,,,,,,,,,,,,,,,,,,,,,,,,,,,,,,,,
,,,,,,,,,,,,,,,,,,,,,,,,,,,,,,,,,
,,,,,,,,,,,,,,,,,,,,,,,,,,,,,,,,,
,,,,,,,,,,,,,,,,,,,,,,,,,,,,,,,,,
,,,,,,,,,,,,,,,,,,,,,,,,,,,,,,,,,
,,,,,,,,,,,,,,,,,,,,,,,,,,,,,,,,,
,,,,,,,,,,,,,,,,,,,,,,,,,,,,,,,,,
,,,,,,,,,,,,,,,,,,,,,,,,,,,,,,,,,
,,,,,,,,,,,,,,,,,,,,,,,,,,,,,,,,,
,,,,,,,,,,,,,,,,,,,,,,,,,,,,,,,,,
,,,,,,,,,,,,,,,,,,,,,,,,,,,,,,,,,
,,,,,,,,,,,,,,,,,,,,,,,,,,,,,,,,,
,,,,,,,,,,,,,,,,,,,,,,,,,,,,,,,,,
,,,,,,,,,,,,,,,,,,,,,,,,,,,,,,,,,
,,,,,,,,,,,,,,,,,,,,,,,,,,,,,,,,,
,,,,,,,,,,,,,,,,,,,,,,,,,,,,,,,,,
,,,,,,,,,,,,,,,,,,,,,,,,,,,,,,,,,
,,,,,,,,,,,,,,,,,,,,,,,,,,,,,,,,,
,,,,,,,,,,,,,,,,,,,,,,,,,,,,,,,,,
,,,,,,,,,,,,,,,,,,,,,,,,,,,,,,,,,
,,,,,,,,,,,,,,,,,,,,,,,,,,,,,,,,,
,,,,,,,,,,,,,,,,,,,,,,,,,,,,,,,,,
,,,,,,,,,,,,,,,,,,,,,,,,,,,,,,,,,
,,,,,,,,,,,,,,,,,,,,,,,,,,,,,,,,,
,,,,,,,,,,,,,,,,,,,,,,,,,,,,,,,,,
,,,,,,,,,,,,,,,,,,,,,,,,,,,,,,,,,
,,,,,,,,,,,,,,,,,,,,,,,,,,,,,,,,,
,,,,,,,,,,,,,,,,,,,,,,,,,,,,,,,,,
,,,,,,,,,,,,,,,,,,,,,,,,,,,,,,,,,
,,,,,,,,,,,,,,,,,,,,,,,,,,,,,,,,,
,,,,,,,,,,,,,,,,,,,,,,,,,,,,,,,,,
,,,,,,,,,,,,,,,,,,,,,,,,,,,,,,,,,
,,,,,,,,,,,,,,,,,,,,,,,,,,,,,,,,,
,,,,,,,,,,,,,,,,,,,,,,,,,,,,,,,,,
,,,,,,,,,,,,,,,,,,,,,,,,,,,,,,,,,
,,,,,,,,,,,,,,,,,,,,,,,,,,,,,,,,,
,,,,,,,,,,,,,,,,,,,,,,,,,,,,,,,,,
,,,,,,,,,,,,,,,,,,,,,,,,,,,,,,,,,
,,,,,,,,,,,,,,,,,,,,,,,,,,,,,,,,,
,,,,,,,,,,,,,,,,,,,,,,,,,,,,,,,,,
,,,,,,,,,,,,,,,,,,,,,,,,,,,,,,,,,
,,,,,,,,,,,,,,,,,,,,,,,,,,,,,,,,,
,,,,,,,,,,,,,,,,,,,,,,,,,,,,,,,,,
,,,,,,,,,,,,,,,,,,,,,,,,,,,,,,,,,
,,,,,,,,,,,,,,,,,,,,,,,,,,,,,,,,,
,,,,,,,,,,,,,,,,,,,,,,,,,,,,,,,,,
,,,,,,,,,,,,,,,,,,,,,,,,,,,,,,,,,
,,,,,,,,,,,,,,,,,,,,,,,,,,,,,,,,,
,,,,,,,,,,,,,,,,,,,,,,,,,,,,,,,,,
,,,,,,,,,,,,,,,,,,,,,,,,,,,,,,,,,
,,,,,,,,,,,,,,,,,,,,,,,,,,,,,,,,,
,,,,,,,,,,,,,,,,,,,,,,,,,,,,,,,,,
,,,,,,,,,,,,,,,,,,,,,,,,,,,,,,,,,
,,,,,,,,,,,,,,,,,,,,,,,,,,,,,,,,,
,,,,,,,,,,,,,,,,,,,,,,,,,,,,,,,,,
,,,,,,,,,,,,,,,,,,,,,,,,,,,,,,,,,
,,,,,,,,,,,,,,,,,,,,,,,,,,,,,,,,,
,,,,,,,,,,,,,,,,,,,,,,,,,,,,,,,,,
,,,,,,,,,,,,,,,,,,,,,,,,,,,,,,,,,
,,,,,,,,,,,,,,,,,,,,,,,,,,,,,,,,,
,,,,,,,,,,,,,,,,,,,,,,,,,,,,,,,,,
,,,,,,,,,,,,,,,,,,,,,,,,,,,,,,,,,
,,,,,,,,,,,,,,,,,,,,,,,,,,,,,,,,,
,,,,,,,,,,,,,,,,,,,,,,,,,,,,,,,,,
,,,,,,,,,,,,,,,,,,,,,,,,,,,,,,,,,
,,,,,,,,,,,,,,,,,,,,,,,,,,,,,,,,,
,,,,,,,,,,,,,,,,,,,,,,,,,,,,,,,,,
,,,,,,,,,,,,,,,,,,,,,,,,,,,,,,,,,
,,,,,,,,,,,,,,,,,,,,,,,,,,,,,,,,,
,,,,,,,,,,,,,,,,,,,,,,,,,,,,,,,,,
,,,,,,,,,,,,,,,,,,,,,,,,,,,,,,,,,
,,,,,,,,,,,,,,,,,,,,,,,,,,,,,,,,,
,,,,,,,,,,,,,,,,,,,,,,,,,,,,,,,,,
,,,,,,,,,,,,,,,,,,,,,,,,,,,,,,,,,
,,,,,,,,,,,,,,,,,,,,,,,,,,,,,,,,,
,,,,,,,,,,,,,,,,,,,,,,,,,,,,,,,,,
,,,,,,,,,,,,,,,,,,,,,,,,,,,,,,,,,
,,,,,,,,,,,,,,,,,,,,,,,,,,,,,,,,,
,,,,,,,,,,,,,,,,,,,,,,,,,,,,,,,,,
,,,,,,,,,,,,,,,,,,,,,,,,,,,,,,,,,
,,,,,,,,,,,,,,,,,,,,,,,,,,,,,,,,,
,,,,,,,,,,,,,,,,,,,,,,,,,,,,,,,,,
,,,,,,,,,,,,,,,,,,,,,,,,,,,,,,,,,
,,,,,,,,,,,,,,,,,,,,,,,,,,,,,,,,,
,,,,,,,,,,,,,,,,,,,,,,,,,,,,,,,,,
,,,,,,,,,,,,,,,,,,,,,,,,,,,,,,,,,
,,,,,,,,,,,,,,,,,,,,,,,,,,,,,,,,,
,,,,,,,,,,,,,,,,,,,,,,,,,,,,,,,,,
,,,,,,,,,,,,,,,,,,,,,,,,,,,,,,,,,
,,,,,,,,,,,,,,,,,,,,,,,,,,,,,,,,,
,,,,,,,,,,,,,,,,,,,,,,,,,,,,,,,,,
,,,,,,,,,,,,,,,,,,,,,,,,,,,,,,,,,
,,,,,,,,,,,,,,,,,,,,,,,,,,,,,,,,,
,,,,,,,,,,,,,,,,,,,,,,,,,,,,,,,,,
,,,,,,,,,,,,,,,,,,,,,,,,,,,,,,,,,
,,,,,,,,,,,,,,,,,,,,,,,,,,,,,,,,,
,,,,,,,,,,,,,,,,,,,,,,,,,,,,,,,,,
,,,,,,,,,,,,,,,,,,,,,,,,,,,,,,,,,
,,,,,,,,,,,,,,,,,,,,,,,,,,,,,,,,,
,,,,,,,,,,,,,,,,,,,,,,,,,,,,,,,,,
,,,,,,,,,,,,,,,,,,,,,,,,,,,,,,,,,
,,,,,,,,,,,,,,,,,,,,,,,,,,,,,,,,,
,,,,,,,,,,,,,,,,,,,,,,,,,,,,,,,,,
,,,,,,,,,,,,,,,,,,,,,,,,,,,,,,,,,
,,,,,,,,,,,,,,,,,,,,,,,,,,,,,,,,,
,,,,,,,,,,,,,,,,,,,,,,,,,,,,,,,,,
,,,,,,,,,,,,,,,,,,,,,,,,,,,,,,,,,
,,,,,,,,,,,,,,,,,,,,,,,,,,,,,,,,,
,,,,,,,,,,,,,,,,,,,,,,,,,,,,,,,,,
,,,,,,,,,,,,,,,,,,,,,,,,,,,,,,,,,
,,,,,,,,,,,,,,,,,,,,,,,,,,,,,,,,,
,,,,,,,,,,,,,,,,,,,,,,,,,,,,,,,,,
,,,,,,,,,,,,,,,,,,,,,,,,,,,,,,,,,
,,,,,,,,,,,,,,,,,,,,,,,,,,,,,,,,,
,,,,,,,,,,,,,,,,,,,,,,,,,,,,,,,,,
,,,,,,,,,,,,,,,,,,,,,,,,,,,,,,,,,
,,,,,,,,,,,,,,,,,,,,,,,,,,,,,,,,,
,,,,,,,,,,,,,,,,,,,,,,,,,,,,,,,,,
,,,,,,,,,,,,,,,,,,,,,,,,,,,,,,,,,
,,,,,,,,,,,,,,,,,,,,,,,,,,,,,,,,,
,,,,,,,,,,,,,,,,,,,,,,,,,,,,,,,,,
,,,,,,,,,,,,,,,,,,,,,,,,,,,,,,,,,
,,,,,,,,,,,,,,,,,,,,,,,,,,,,,,,,,
,,,,,,,,,,,,,,,,,,,,,,,,,,,,,,,,,
,,,,,,,,,,,,,,,,,,,,,,,,,,,,,,,,,
,,,,,,,,,,,,,,,,,,,,,,,,,,,,,,,,,
,,,,,,,,,,,,,,,,,,,,,,,,,,,,,,,,,
,,,,,,,,,,,,,,,,,,,,,,,,,,,,,,,,,
,,,,,,,,,,,,,,,,,,,,,,,,,,,,,,,,,
