Unit,ColumnMin,Min,Max,Min(avg),Max(avg),Assumed,Rock type,Notes,Shope Conductivity,Carter Conductivity,USGS Lithology,,pink,Evaporite
Dunkard Gp OR Greene/Washington/Waynesburg,0,81,359,72.9,323.1,198,"Interbedded Ss, Slt, Sh",This is the min and max for all. These are present in about 90% of the column.,2.75,2.59,"ss, slt, sh, ls, coal",,blue,Carbonate
Monogahela Gp.: Uniontown Fm.,0,9,28,8.1,25.2,16.65,"Interbedded Ss, Slt, Sh",Present in 90% of column,2,2.3,"LS,Sh,SS,Coal",,gray,"Shale, Mudstone, Siltstone"
Monogahela Gp.: Pittsburgh Fm.,0,65,80,58.5,72,65.25,Carbonate,Present in 90% of column,2,2.3,"LS,Sh,SS,Coal",,yellow,Sandstone
Conemaugh Gp.: Casselman Fm. ,0,151,151,135.9,135.9,135.9,"Shale, Mudstone, Siltstone",*Conductivity from Cercone et al. In 90% of the column,1.6,1.94,"Sh, slt, ss, ls, coal",,orange,Conglomerate
Conemaugh Gp.: Glenshaw Fm. ,0,113,113,107.35,107.35,107.35,"Interbedded Ss, Slt, Sh",*Conductivity from Cercone et al. In 95% of the column,1.6,1.94,"Sh, slt, ss, ls, coal",,lt. brown,"Interbedded Ss, Slt, Sh"
Allegheny,85,85,85,85,85,85,"Interbedded Ss, Slt, Sh",,2.75,2.37,"SS, slt, sh, mud, coal",,dk brown,Metamorphic
Pottsville,54,54,63,54,63,58.5,Sandstone,,2.75,2.66,"Interbedded sandstone, siltstone, claystone, shale",,green,Volcanic
Mauch Chunk,0,135,142,67.5,71,69.25,"Shale, Mudstone, Siltstone",Only in half of the column,1.75,1.6,"Grayish-red shale, siltstone, sandstone, and some conglomerate",,teal ,Chert
Greenbrier OR Wymps Gap/Loyalhanna Fm.,19,19,72,45.5,49,47.25,Limestone,,2.75,2.849125058,"ls, ss, sh",,,
Burgoon/Rockwell OR unnamed/Shenango,164,164,224,164,224,194,"Ss, Slt, Sh",,2.75,3.62,"SS, SLT",,,
Riceville Fm. OR Oswayo Fm.,0,0,55,0,27.5,13.75,"Shale, Mudstone, Siltstone",Only in half of the column,1.75,2.041044157,"Sandstone, siltstone, and shale",,,
Venango/Chadakoin/Bradford OR Catskill/Lock Haven OR Hampshire/Foreknobs/Scherr,664,664,1580,969.6666667,969.6666667,969.6666667,"Ss, Slt, Sh",,2.75,2.3,"slt, ss, sh, cgl",,,
Bralier,697,697,1060,697,1060,878.5,"Sh, Mud, Slt",,1.75,1.86,"slt,sh",,,
Harrell OR Rhinestreet/Sonyea/Genesee,97,97,237,118.5,188.5,153.5,"Sh, Mud, Slt",,1.75,1.41,"blk sh, sh",,,
Tully Limestone,20,20,20,20,20,20,Limestone,,3,2.91,ls,,,
Hamilton: upper/Marcellus,110,110,110,110,110,110,"Sh, Mud, Slt",about 70% Marcellus,2.75,1.54,"Sh, Ss, Ls",,,
Selinsgrove Limestone,3,3,6,3,6,4.5,Limestone,,3,2.91,LS,,,
Huntersville Chert,32,32,32,32,32,32,Chert,,2.75,4.12,Chert,,,
Needmore Shale,7,7,7,7,7,7,Sh,,2.75,1.5,sh,,,
Ridgeley Sandstone,30,30,30,30,30,30,Ss,,1.75,4.27,SS,,,
Licking Creek OR Shriver,12,12,39,30.9,35.4,33.15,"Carbonate (Ls) or Sh, Mud, Slt",,2.8,3.79,"Chert, slt, sh",,,
Mandata shale,7,7,7,7,7,7,Sh,,2.75,1.5,sh,,,
Corriganvile limestone,3,3,3,3,3,3,Carbonate,,3,2.91,LS,,,
New Creek limestone,3,3,3,3,3,3,Carbonate,,3,2.91,LS,,,
Keyser formation,15,15,39,15,39,27,Carbonate,,3,2.91,LS,,,
Salina OR Tonoloway/Wills Creek shale/Bloomsburg,156,156,462,243,369.5,306.25,Evaporite or Carbonate/Sh,"50% Salina, 40% Wills Creek and Bloomsburg shale, 10% tonoloway",5,1.75,"Sh, dol, evap, blk sh",,,
Lockport Dolomite OR McKenzie OR Milltown Fm.,0,0,120,54.66666667,106.6666667,80.66666667,Carbonate,Each in 1/3rd of the column.,3,2.7,Dol,,,
"Clinton group: Rochester shale, Rose Hill Shale, Keefer sandstone, Irondequot and Reynales Dolomite",100,100,223,100,223,161.5,"Shale, Mudstone, Siltstone","90% shale, 5% dolomite, 5% sandstone",2.75,3.04,"sh, Ls, Dol",,,
Tuscarora formation,45,45,133,45,133,89,Ss,,2.75,4.15,"SS, cgl",,,
Queenston shale OR Juniata/Bald Eagle,290,290,487,290.8,447.6,369.2,Sandstone and Shale,87% sandstone,2.75,2.51,"Slt, Sh",,,
Reedsville shale,233,233,233,233,233,233,Shale,,2.75,1.68,"Sh,slt,ss, blk sh",,,
Antes formation,54,54,54,54,54,54,"Shale, Mudstone, Siltstone",,2.75,1.78,,,,
Coburn formation,75,75,75,75,75,75,Carbonate,,3,3.71,,,,
Salona formation,39,39,39,39,39,39,Carbonate,,3,3.71,,,,
Nealmount,78,78,78,78,78,78,Carbonate,,3,3.71,,,,
Benner,36,36,54,36,54,45,Carbonate,,3,3.71,,,,
Snyder,14,14,39,14,39,26.5,Carbonate,,3,3.71,,,,
Hatter,36,36,60,36,60,48,Carbonate,,3,3.71,,,,
Loysburg,34,34,51,34,51,42.5,Carbonate,,3,3.35,"LS,dol",,,
Beekmantown Gp,652,652,704,652,704,678,Carbonate,,3,3.42,"ls, dol,chert",,,
Gatesburg Fm.,246,246,332,246,332,289,Carbonate and Sandstone,25% sandstone,3,3.97,"DOL,SS,LS,CHERT",,,
warrior formation,134,134,134,134,134,134,Carbonate,,3,3.41,"ls, dol, ss",,,
average depth to basement,,4798,7823,,,6017.833333,,,,,,,,
