Unit,ColumnMin,Min,Max,Min(avg),Max(avg),Assumed,Rock type,Notes,Shope Conductivity,Carter Conductivity,USGS Lithology,,,pink,Evaporite
Glenshaw,0,0,114,0,57,28.5,"Ss, Slt, Sh",Only in 50% of the column,2.75,1.94,,,,blue,Carbonate
Allegheny Group,91,91,91,91,91,91,"Ss, Slt, Sh",,2.75,2.37,,,,gray,"Shale, Mudstone, Siltstone"
Pottsville Group OR Homewood/Mercer/Connoquenessing/SharonOROleanConglomerate,54,54,134,58,110,84,"Ss, shale, conglomerate","about 30% sandstone, 20% shale",3.75,3.84,,,,yellow,Sandstone
Shenango,0,0,54,0,27,13.5,"Ss, Slt, Sh, Mud",In 50% of the column,2.75,3.15,,,,orange,Conglomerate
Cuyahoga Group,0,0,72,0,54,27,"Shale, Mudstone, Siltstone",In 75% of the column,1.75,2.04,,,,lt. brown,"Interbedded Ss, Slt, Sh"
Berea sandstone/Bedford shale/Cussewago sandstone OR Knapp Fm.,17,17,50,24.25,49,36.625,"Sandstone, Shale, Mix","About 60% sandstone, 10% shale",2.75,3.3,,,,dk brown,Metamorphic
Riceville Shale OR Oswayo Fm.,27,27,79,40.5,66.5,53.5,"Shale, Mudstone, Siltstone",,1.75,2.09,,,,green,Volcanic
Chagrin/Ohio OR,375,375,593,403.25,528.25,465.75,"Sh, Mud, Slt",,1.75,1.78,,,,teal ,Chert
Java Fm.:Hanover or Wiscoy members/Pipe Creek member (1 m),28,28,28,28,28,28,"Sh, Mud, Slt",,1.75,1.75,,,,,
West Falls Fm.: Nunda/Angola/Rhinestreet members,179,179,233,179,233,206,"Sh, Mud, Slt",,1.75,1.76,,,,,
Sonyea Fm.: Cashaqua/Middlesex members,0,7,21,5.25,15.75,10.5,"Sh, Mud, Slt",In 75% of the column,1.75,1.36,,,,,
Gennessee Fm.: West River/Penn Yan/Geneseo members,0,0,15,0,9,4.5,"Sh, Mud, Slt",In 60% of the column,1.75,1.66,,,,,
Tully Lime,0,0,35,0,21,10.5,Ls,In 60% of the column,2.8,2.91,,,,,
Hamilton Group,10,10,43,10,43,26.5,"Sh, Mud, Slt",(inc. Marcellus),1.75,2.02,,,,,
Onondaga Fm.: Delaware Limestone/Columbus Limestone OR Moorehouse/Nedrow/Edgecliff Limestones,60,60,70,60,70,65,Ls,,2.8,2.91,,,,,
Bois Blanc OR Huntersville Chert,9,9,15,10.5,10.5,10.5,"Carbonate, Chert",,2.8,3.9,,,,,
Oriskany snadstone OR Ridgeley Fm.,0,0,10,0,5.6,2.8,Sandstone,In about 60% of the column,3.75,4.27,,,,,
Shriver/Helderberg,0,0,33,0,33,16.5,Ls,,2.8,2.91,,,,,
Bass Island Gp.: Cobbleskill Limestone/Bertie Dolomite,14,14,14,14,14,14,"Ls, Dol",,2.8,2.7,,,,,
Salina Group,116,116,116,116,116,116,Evaoporite,,5,1.89,,,,,
Lockport Dolomite,53,53,53,53,53,53,Dol,,3,4.5,,,,,
Decew Dolomite,0,0,11.4,0,11.4,5.7,Dol,In 60% of the column,3,4.5,,,,,
Clinton Group: Rochester shale/Ironquoit dolomite/Clinton shale/Reynales dolomite,15,15,21,15,21,18,"Sh, Mud, Slt, Dol",,2,3.6,,,,,
Medina Group:Grimsby/Cabot Head Shale/Whirlpool sandstone OR Tuscarora,0,0,58,0,48.5,24.25,"Ss, Slt, Sh",,2.75,3.09,,,,,
Queenston Shale,265,265,323,265,323,294,Sh,,1.5,1.86,,,,,
Reedsville Shale,200,200,251,200,251,225.5,Sh,,1.5,1.68,,,,,
Utica Shale,50,50,100,50,100,75,Sh,,1.5,1.04,,,,,
Coburn/Salona,0,68,68,34,34,34,Carbonate,In 50% of the column,2.8,3.71,,,,,
Nealmont,50,50,50,50,50,50,Carbonate,,2.8,3.71,,,,,
Benner Fm.,24,24,36,24,36,30,Carbonate,,2.8,3.71,,,,,
Snyder,13,13,13,13,13,13,Carbonate,,2.8,3.71,,,,,
Hatter,30,30,45,30,45,37.5,Carbonate,,2.8,3.71,,,,,
Loysburg,33,33,48,33,48,40.5,Carbonate,,2.8,3.35,,,,,
Shadow Lake/Larke (Beekmantown on the cross section B-B'),300,300,500,300,500,400,Carbonate,Thickness from Ryder cross section B-B',2.8,4.5,,,,,
Gatesburg Formation OR Mines/upper sandy/middle dolomite/lower sandy,153,153,400,153,400,276.5,"Ls, Dol",Max thickness from Ryder cross section B-B',2.8,4.13,,,,,
unnamed shale,75,75,125,75,125,100,Shale,Unit from Ryder cross section B-B',1.7,4.3,,,,,
Warrior,134,134,182,134,182,158,Carbonate,,2.8,3.41,,,,,
Potsdam,16,16,32,16,32,24,Ss,,3.75,4.27,,,,,
BASEMENT,,,,,,,Gneiss,,,,,,,,
Totals:,,,,2484.75,3854.5,3169.625,,,,,,,,,
