Unit,ColumnMin,Min,Max,Min(avg),Max(avg),Assumed,Rock type,Notes,Shope Conductivity,Carter Conductivity,,,,pink,Evaporite,,,,,,,,,,,,,,,,,,,,,,,,,,,,,
Llewellyn,1060,1060,1060,1060,1060,1060,"Ss, Slt, Sh",,2.75,2.70,,,,blue,Carbonate,,,,,,,,,,,,,,,,,,,,,,,,,,,,,
Pottsville,0,272,432,163.2,259.2,211.2,Conglomerate,In 60% of the column,3,2.66,,,,gray,"Shale, Mudstone, Siltstone",,,,,,,,,,,,,,,,,,,,,,,,,,,,,
Mauch Chunk,0,545,1880,436,1504,970,"Sh, Mud, Slt",In 80% of the column,1.75,1.60,,,,yellow,Sandstone,,,,,,,,,,,,,,,,,,,,,,,,,,,,,
Pocono,0,258,407,206.4,325.6,266,"Ss, Slt, Sh",In 80% of the column (25% sandstone),2.75,4.27,,,,orange,Conglomerate,,,,,,,,,,,,,,,,,,,,,,,,,,,,,
Spchty Kopf,0,0,166,0,132.8,66.4,"Ss, Slt, Sh",In 80% of the column,2.75,2.70,,,,lt. brown,"Interbedded Ss, Slt, Sh",,,,,,,,,,,,,,,,,,,,,,,,,,,,,
Catskill Fm.:Duncannon,226,226,427,226,427,326.5,"Ss, Slt, Sh",,2.75,2.70,,,,dk brown,Metamorphic,,,,,,,,,,,,,,,,,,,,,,,,,,,,,
Catskill Fm.:Clarks Ferry ,69,69,273,69,273,171,Sandstone,,,4.27,,,,green,Volcanic,,,,,,,,,,,,,,,,,,,,,,,,,,,,,
Catskill Fm.:Sherman Creek,945,945,1128,945,1128,1036.5,"Shale, Mudstone, Siltstone",,,1.78,,,,teal ,Chert,,,,,,,,,,,,,,,,,,,,,,,,,,,,,
Catskill Fm.:Irish Valley,646,646,716,646,716,681,"Interbedded Ss, Slt, Sh",,,2.70,,,,,,,,,,,,,,,,,,,,,,,,,,,,,,,,,,
Trimmers Rock,320,320,320,320,320,320,"Sh, Mud, Slt",,1.75,1.78,,,,,,,,,,,,,,,,,,,,,,,,,,,,,,,,,,
Hamilton Group,650,650,954,650,954,802,"Sh, Mud, Slt",(inc. Marcellus) (20% sandstone),1.75,2.02,,,,,,,,,,,,,,,,,,,,,,,,,,,,,,,,,,
Selinsgrove OR Buttermilk Falls,12,12,32,22,22,22,Ls,,2.8,3.08,,,,,,,,,,,,,,,,,,,,,,,,,,,,,,,,,,
Needmore OR Palmerton/Schoharie-Esopus undiff.,34,34,53,38,47.5,42.75,"Sh, Mud, Slt and Sandstone",25% sandstone,1.75,1.67,,,,,,,,,,,,,,,,,,,,,,,,,,,,,,,,,,
Old Port Formation: Ridgeley sandstone/Shriver Chert/Mandata shale/New Scotland/Coeymans,0,43,94,37.2,54.8,46,"Ss, Slt, Sh, Chert, Carbonate",In 80% of the column,2.5,2.59,,,,,,,,,,,,,,,,,,,,,,,,,,,,,,,,,,
Keyser OR Rondout/Decker,0,0,43,12.8,32.4,22.6,"Ls, Ss, Slt, Sh",In 80% of the column,2.8,2.91,,,,,,,,,,,,,,,,,,,,,,,,,,,,,,,,,,
Tonoloway OR Bossardville,0,30,91,48.4,48.4,48.4,Ls,In 80% of the column,2.8,2.11,,,,,,,,,,,,,,,,,,,,,,,,,,,,,,,,,,
Wills Creek OR Poxono Island,0,65,121,74.4,74.4,74.4,"Sh, Mud, Slt",In 80% of the column,1.75,1.92,,,,,,,,,,,,,,,,,,,,,,,,,,,,,,,,,,
Bloomsburg Formation,212,212,545,212,545,378.5,"Ss, Slt, Sh",,2.75,1.80,,,,,,,,,,,,,,,,,,,,,,,,,,,,,,,,,,
Shawangunk Formation OR Mifflintown/Keefer/Rose Hill/Tuscarora,236,236,495,365.5,365.5,365.5,Ss,,3.75,2.52,,,,,,,,,,,,,,,,,,,,,,,,,,,,,,,,,,
Spitzenburg Conglomerate,0,35,35,11.66666667,11.66666667,11.66666667,Conglomerate,In a third of the column,,4.13,,,,,,,,,,,,,,,,,,,,,,,,,,,,,,,,,,
Sharp Mountain Sandstone,0,95,95,31.66666667,31.66666667,31.66666667,Sandstone,In a third of the column,,4.27,,,,,,,,,,,,,,,,,,,,,,,,,,,,,,,,,,
Martinsburg Formation,0,606,2425,363.6,1455,909.3,"Sh, Mud, Slt",In 60% of the column,1.75,1.50,,,,,,,,,,,,,,,,,,,,,,,,,,,,,,,,,,
Hershey Fm/Beekmantown Group/Conocoheague Group/Buffalo Springs Fm./Zooks Corners/Ledgers/Kinzers OR Jacksonburg Fm/Beekmantown/Allentown/Leithsville OR Harpers Fm.,1423,1423,4085,1963.666667,2538.333333,2251,"Ss, Slt, Sh, Carbonates","VERY AMBIGUOUS - either Hamburg (1515 meters of Ss, Slt, Sh) OR Beekmantown, etc. (thousands of meters of carbonates) - hard to say where split occurs geographically. About 80% carbonates on average.",3.25,3.10,,,,,,,,,,,,,,,,,,,,,,,,,,,,,,,,,,
BASEMENT? Likey because Harpers Fm. Is a basement unit.,,,,,,,,,,,,,,,,,,,,,,,,,,,,,,,,,,,,,,,,,,,,
Totals:,,7782,15877,,,10114.38333,,,,,,,,,,,,,,,,,,,,,,,,,,,,,,,,,,,,,,
