Unit,ColumnMin,Min,Max,Min(avg),Max(avg),Assumed,Rock type,Notes,Carter Conductivity,,,USGS Lithology,,,pink,Evaporite
Wise Fm.,0,20,30,10,15,12.5,"Interbedded Ss, Slt, Sh",In 50% of column,2.703333333,,,,,,blue,Carbonate
Gladeville Sandstone,0,30,30,27,27,27,Sandstone,In 90% of the column,5,,,,,,gray,"Shale, Mudstone, Siltstone"
Norton Fm./Lee Fm.  OR New River Fm./Pocahontas Fm.,350,350,775,479,592.5,535.75,"Interbedded Ss, Slt, Sh OR Sandstone",Mostly sandstone,2.703333333,,,,,,yellow,Sandstone
Bluestone Fm.,91,91,150,91,150,120.5,"Interbedded Ss, Slt, Sh",,2.885,,,,,,orange,Conglomerate
Pride Shale,0,15,15,9,9,9,Shale,In 60% of the column,4.27,,,,,,lt. brown,"Interbedded Ss, Slt, Sh"
Hinton Fm.:Tallery Sandstone(0-52)/Little Stone Gap(15)/ middle red(152)/Stony Gap Sandstone(48-60)/Bluefield Fm.(152) OR Pennington Fm.,365,365,422,382.5,408.5,395.5,"Sandstone/Carbonate/Shale, Mudstone, Siltstone/Sandstone/Shale, Mudstone, Siltstone OR Interbedded Ss, Slt, Sh",,3.104,,,,,,dk brown,Metamorphic
Greenbrier Limestone OR Cove Creek Limestone/Fido Sandstone/Gasper Limestone/Ste.Genevieve Limestone/Hillsdale Limestone/Little Valley Fm.,168,168,1442,803,805,804,Limestone,Essentially all limestone,2.91,,,,,,green,Volcanic
Maccrady Shale,15,15,30,15,30,22.5,Shale,,1.5,,,,,,teal ,Chert
Price Fm.,70,70,244,70,244,157,"Interbedded Ss, Slt, Sh",,3.3,,,,,,,
Chatanooga Shale OR Big Stone Gap Shale/Brallier Fm./Millboro Shale,307,307,569,438,453.5,445.75,"Shale, Mudstone, Siltstone",,1.78,,,,,,,
Wildcat Valley Sandstone,0,0,14,0,14,7,Sandstone,,4.27,,,,,,,
Hancock Limestone OR Tonoloway Limestone,30,30,61,45.5,45.5,45.5,Limestone,,2.91,,,,,,,
Rose Hill Fm.,0,0,122,0,122,61,"Interbedded Ss, Slt, Sh",,2.885,,,,,,,
Clinch Sandstone: Poor Valley Ridge Member,45,45,45,45,45,45,Sandstone,,4.635,,,,,,,
Clinch Sandstone: Hagan Shale ,22,22,22,22,22,22,Shale,,1.5,,,,,,,
Sequatchie Fm. OR Juniata Fm.,66,66,122,94,94,94,"Shale, Mudstone, Siltstone OR Interbedded Ss, Slt, Sh",,2.755,,,,,,,
Reedsville Shale OR Martinsburg Shale,128,128,350,194,243.5,218.75,Shale,,1.5,,,,,,,
Trenton Limestone OR Eggleston Fm.,45,45,168,106.5,106.5,106.5,Limestone,,3.705,,,,,,,
Moccasin Fm.,110,110,183,110,183,146.5,"Shale, Mudstone, Siltstone",,1.5,,,Dusky-red shale and mudstone,,,,
Witten Limestone,53,53,68,53,68,60.5,Limestone,,2.91,,,,,,,
Bowen Limestone,15,15,24,15,24,19.5,Limestone,,2.91,,,,,,,
Wardell Fm.,23,23,76,23,76,49.5,Carbonate,,3.705,,,,,,,
Benbolt Limestone,30,30,122,30,122,76,Limestone,,2.91,,,,,,,
Rye Cove Limestone OR Rockdell Limestone/Lincolnshire Limestone/Five Oaks Limestone/Elway Limestone,51,51,158,54,128.9,91.45,Limestone,,2.91,,,,,,,
Blackford Fm.,24,24,35,24,35,29.5,Carbonate,,3.705,,,,,,,
Mascot Dolomite/Kingsport Dolomite/Chepultepec Dolomite OR Beekmantown Dolomite ,303,303,492,349.8,425.4,387.6,Dolomite,,4.5,,,,,,,
Copper Ridge Dolomite,152,152,183,152,183,167.5,Dolomite,,4.5,,,,,,,
Maynardsville Limestone: Chances Branch Dolomite,21,21,38,21,38,29.5,Dolomite,,4.5,,,,,,,
Maynardsville Limestone: Low Hollow Limestone,12,12,33,12,33,22.5,Limestone,,2.91,,,,,,,
Nolichucky Shale,117,117,155,117,155,136,Limestone and Shale,50/50 Limestone and Shale,2.205,,,,,,,
Maryville Limestone/Rogersville Shale/Rutledge Limestone                                              OR Honaker Fm.:upper Limestone(34)/dolomite(235)/limestone(67),274,274,353,310.6,342.2,326.4,Carbonate and Shale,5% shale,4.26975,,,,,,,
Pumpkin valley shale,105,105,168,105,168,136.5,Shale,,1.5,,,,,,,
Rome Fm.,230,230,550,230,550,390,"Shale, Mudstone, Siltstone",,1.78,,,,,,,
,,,,,,,,,,,,,,,,
Total Thickness,,,,4437.9,5958.5,5198.2,,,,,,,,,,
