Unit,ColumnMin,Min,Max,Min(avg),Max(avg),Assumed,Rock type,Notes,Carter Conductivity,,,USGS Lithology,,,pink,Evaporite
Maccrady Shale,0,10,15,5,7.5,6.25,Shale,Only present in 1/2 of the section,1.5,,,,,,blue,Carbonate
Pocono Fm.,0,100,150,50,75,62.5,Sandstone,Only present in 1/2 of the section,3.3,,,,,,gray,"Shale, Mudstone, Siltstone"
Hampshire Fm./Foreknobs Fm.:Red Lick/Pound Sandstone/Blizzard/Briery/Mallow OR      Hampshire Fm./ChemungFm.,915,915,1310,915,1270,1092.5,"Interbedded Ss, Slt, Sh",Sandstone is ~20%,2.278,,,"Interbedded red shale, red mudstone, and red to brown cross-bedded siltstone and sandstone",,,yellow,Sandstone
Brallier Fm.,450,450,450,450,450,450,"Shale, Mudstone, Siltstone",,2.703333333,,,"Micaceous shale, siltstone, and sandstone",,,orange,Conglomerate
Millboro Shale,152,152,305,152,305,228.5,Shale,,0.90,,,"Black, fissile shale",,,lt. brown,"Interbedded Ss, Slt, Sh"
Huntersville Fm. OR Needmore Shale,0,0,30,1.5,17.5,9.5,Chert OR Shale,Shale is 86%,1.8668,,,,,,dk brown,Metamorphic
Rocky Gap Sandstone OR Ridgeley Sandstone/Licking Creek Limestone/Healing Springs Sandstone/New Creek Limestone/Keyser Fm.: upper limestone member/(Clifton Forge Sandstone OR Big Mountain Shale)/lower limestone member,2,2,186,30.4,142.8,86.6,"Sandstone, Limestone, Shale","34 % Sandstone, 56% limestone, 10% shale",3.2314,,,,,,green,Volcanic
Tonoloway Limestone,10,10,10,30,61,45.5,Limestone,,2.91,,,thin-bedded platy argillaceous limestones,,,teal ,Chert
Wills Creek Fm.,15,15,30,15,30,22.5,"Interbedded Ss, Slt, Sh",,2.205,,,"Olive to yellowish-gray, thin-bedded mudstone, calcareous shale, argillaceous limestone, and sandstone",,,,
Keefer Sandstone OR Williamsport Fm./Mifflintown Fm: McKenzie/Cosner/lower hematatic,3,3,91,12,60.4,36.2,Sandstone/Shale,"Shale is 33%, Sandstone is 67%",3.3559,,,,,,,
Rose Hill Fm.,61,61,75,61,75,68,"Interbedded Ss, Slt, Sh",,2.1925,,,,,,,
Tuscarora Sandstone,21,21,37,21,37,29,Sandstone,,4.635,,,,,,,
Juniata Fm.,70,70,77,70,77,73.5,"Interbedded Ss, Slt, Sh",,2.423333333,,,,,,,
Martinsburg Fm./Eggleston Fm./Moccasin Fm./Witten Fm./Bowen Fm./Gratton Limestone OR Reedsville Shale/Dolly Ridge Fm./Nealmont Fm./Moccasin Fm./Witten Fm./Wardell Fm.,439,439,501,440,473,456.5,"Shale, Mudstone, Siltstone & Carbonate",Shale is ~62%,2.0358,,,,,,,
Benbolt Limestone,45,45,45,45,45,45,Limestone,,2.91,,,,,,,
Peery Limestone,27,27,27,27,27,27,Limestone,,2.91,,,,,,,
Ward Cove Limestone,7,7,10,7,10,8.5,Limestone,,2.91,,,,,,,
Lincolnshire Limestone,15,15,23,15,23,19,Limestone,,2.91,,,,,,,
Five Oaks Limestone,5,5,30,5,30,17.5,Limestone,,2.91,,,,,,,
Elway Limestone,45,45,45,45,45,45,Limestone,,2.91,,,,,,,
Blackford Fm.,10,10,10,10,10,10,Carbonate,,3.843333333,,,,,,,
Beekmantown Fm.,0,100,300,100,300,200,Carbonate,All of these layers are only present in 1/2 of the section,3.705,,,,,,,
Chepultepec Dolomite,0,60,150,30,75,52.5,Dolomite,,4.5,,,,,,,
Copper Ridge Dolomite,0,300,300,150,150,150,Dolomite,,4.5,,,,,,,
Nolichucky Fm.,0,40,40,20,20,20,"Shale, Mudstone, Siltstone",,1.78,,,,,,,
Honaker Fm.,0,80,80,40,40,40,Carbonate,,3.705,,,,,,,
"Possible formations missing based on sediment thickness map that ranges from 4.5 km - 11 km thickness (Mooney, 2011)",,,,,,,,,,,,,,,,
Total Thickness,,2982,4327,2746.9,3856.2,3301.55,,,,,,,,,,
,,,,,,,,,,,,,,,,
,,,,,,,,,,,,,,,,
,,,,,,,,,,,,,,,,
,,,,,,,,,,,,,,,,
,,,,,,,,,,,,,,,,
,,,,,,,,,,,,,,,,
,,,,,,,,,,,,,,,,
,,,,,,,,,,,,,,,,
,,,,,,,,,,,,,,,,
,,,,,,,,,,,,,,,,
,,,,,,,,,,,,,,,,
,,,,,,,,,,,,,,,,
,,,,,,,,,,,,,,,,
,,,,,,,,,,,,,,,,
,,,,,,,,,,,,,,,,
,,,,,,,,,,,,,,,,
,,,,,,,,,,,,,,,,
,,,,,,,,,,,,,,,,
