Unit,ColumnMin,Min,Max,Min(avg),Max(avg),Assumed,Rock type,Notes,Carter Conductivity,,,USGS Lithology,,,pink,Evaporite
Mahantango Fm.,30,30,60,30,60,45,"Shale, Mudstone, Siltstone",The thickness is taken from the Western column. I'm not sure this is the correct thickness for this unit. ,2.885,,,,,,blue,Carbonate
Marcellus Shale,91,91,122,91,122,106.5,Shale,"69% Shale, 31% Limestone",1.9371,,,,,,gray,"Shale, Mudstone, Siltstone"
Needmore Shale,25,25,30,25,30,27.5,Shale,,1.5,,,,,,yellow,Sandstone
Ridgeley Sandstone,0,0,46,0,46,23,Sandstone,,4.2,,,,,,orange,Conglomerate
Helderberg Limestone,100,100,400,100,400,250,Limestone,,3.152,,,,,,lt. brown,"Interbedded Ss, Slt, Sh"
Tonoloway Limestone,15,15,61,15,61,38,Limestone,,2.91,,,,,,dk brown,Metamorphic
Wills Creek Fm.,42,42,73,42,73,57.5,Carbonate,,2.205,,,thin-bedded shale with fossiliferous limestones of the Wills Creek,,,green,Volcanic
Bloomsburg Fm.,24,24,91,24,91,57.5,"Interbedded Ss, Slt, Sh",,2.703333333,,,,,,teal ,Chert
Massanutten Sandstone,170,170,240,170,240,205,Sandstone,,4.565,,,Quartzarenite with lenses of conglomerate,,,,
Martinsburg Fm.: Sandstone,15,15,31,15,31,23,Sandstone,,4.27,,,,,,,
Martinsburg Fm.: Turbidite,305,305,457,305,457,381,"Interbedded Ss, Slt, Sh",,1.5,,,,,,,
Martinsburg Fm.: Argillite,152,152,305,152,305,228.5,"Shale, Mudstone, Siltstone",,1.5,,,,,,,
Martinsburg Fm.: black shale,30,30,61,30,61,45.5,Shale,,1.5,,,,,,,
Oranda Fm.,0,0,15,0,7.5,3.75,"Shale, Mudstone, Siltstone",In 50% of the column,2.4025,,,"Shale, sandstone, siltstone, and limestone",,,,
Liberty Hall Fm.,107,107,457,107,457,282,Carbonate,,3.705,,,,,,,
black shale,0,0,30,0,22.5,11.25,Shale,In 75% of the column,1.5,,,,,,,
Murat Limestone,0,0,50,0,12.5,6.25,Limestone,In 25% of the column,2.91,,,,,,,
Lincolnshire Limestone,14,14,66,14,66,40,Limestone,,2.91,,,,,,,
New Market Limestone,0,0,61,0,61,30.5,Limestone,,2.91,,,,,,,
Beekmantown Gp.,762,762,943,762,943,852.5,Carbonate,,3.705,,,,,,,
Stonehenge Limestone,54,54,152,54,152,103,Limestone,,2.91,,,,,,,
Stoufferstown ,0,5,15,3.75,11.25,7.5,Carbonate,In 75% of the column,3.705,,,,,,,
Conocoheague Fm.,762,762,853,762,853,807.5,Carbonate,,3.705,,,,,,,
Elbrook Fm.,750,750,855,750,855,802.5,Carbonate,,3.705,,,,,,,
Waynesboro Fm.,355,355,355,355,355,355,"Shale, Mudstone, Siltstone & Carbonate",,3.104,,,,,,,
Shady Dolomite,366,366,366,366,366,366,Dolomite,,4.5,,,,,,,
Antietam Fm.,244,244,244,244,244,244,Sandstone,,5,,,,,,,
Harpers Fm.,457,457,823,457,823,,Metamorphic,NOT PART OF THE SEDIMENTS!!,,,,,,,,
Weaverton Fm.,61,61,122,61,122,,Metamorphic,NOT PART OF THE SEDIMENTS!!,,,,,,,,
Catoctin Fm.,457,457,914,457,914,,Volcanic,NOT PART OF THE SEDIMENTS!!,,,,,,,,
Swift Run Fm.,24,24,61,24,61,,Metamorphic,NOT PART OF THE SEDIMENTS!!,,,,,,,,
Pedlar Fm.,,,,?,?,,Metamorphic,NOT PART OF THE SEDIMENTS!!,,,,,,,,
,,,,,,,,,,,,,,,,
Total Thickness,,,,5415.75,8302.75,5399.75,,,,,,,,,,
,,,,,,,,,,,,,,,,
,,,,,,,,,,,,,,,,
,,,,,,,,,,,,,,,,
,,,,,,,,,,,,,,,,
,,,,,,,,,,,,,,,,
,,,,,,,,,,,,,,,,
,,,,,,,,,,,,,,,,
,,,,,,,,,,,,,,,,
,,,,,,,,,,,,,,,,
,,,,,,,,,,,,,,,,
,,,,,,,,,,,,,,,,
,,,,,,,,,,,,,,,,
,,,,,,,,,,,,,,,,
,,,,,,,,,,,,,,,,
