Unit,ColumnMin,Min,Max,Min(avg),Max(avg),Assumed,Rock type,Notes,Carter Conductivity,,,USGS Lithology,,,pink,Evaporite
Dunkard Gp,0,195,195,156,156,156,"Interbedded Ss, Slt, Sh",In 80% of the column,2.59,,,sandstone; siltstone; shale; limestone; coal,,,blue,Carbonate
Monongahela Gp,107,107,122,107,122,114.5,"Interbedded Ss, Slt, Sh",,2.30,,,shale; siltstone; mudstone; sandstone; limestone; coal,,,gray,"Shale, Mudstone, Siltstone"
Conemaugh Group,180,180,250,180,250,215,"Interbedded Ss, Slt, Sh",,1.94,,,red and gray shale; siltstone; sandstone; limestone; coal,,,yellow,Sandstone
Allegheny Fm.,85,85,91,85,91,88,Sandstone,,2.37,,,,,,orange,Conglomerate
Pottsville Gp. OR Kanawha Fm/New River Fm/Pocahontas Fm ,782,782,1038,817,948,882.5,"Sandstone & Interbedded Ss, Slt, Sh","42% Sandstone, 58% Interbedded",2.66,,,,,,lt. brown,"Interbedded Ss, Slt, Sh"
Mauch Chunk Gp.,40,40,450,40,450,245,"Shale, Mudstone, Siltstone",,1.60,,,,,,dk brown,Metamorphic
Greenbrier Limestone,30,30,110,30,110,70,Carbonate (Limestone),,2.71,,,limestone; sandstone; shale; calcarenite,,,green,Volcanic
Pocono Group,15,15,150,15,150,82.5,"Interbedded Ss, Slt, Sh",,3.3,,,"Sandstone, conglomeratic sandstone, and shale",,,teal ,Chert
Sunbury Shale,0,0,4,0,3.2,1.6,Shale,In 80% of the column,1.5,,,,,,,
Berea Sandstone,0,3,16,2.4,12.8,7.6,Sandstone,In 80% of the column,4.27,,,,,,,
Ohio Shale/Java Fm. OR Chemung Fm/Lower Huron Shale/Java Fm.                                                          OR Hampshire Fm/Chemung Fm/Java Fm. OR Hampshire Fm/Java Fm,600,600,880,691.25,841.25,766.25,"Shale, Sandstone, & Interbedded Ss, Slt, Sh","Shale and Interbedded about equal, 1/8th sandstone",1.968264286,,,,,,,
West Falls Fm.: Angola Shale/Rhinestreet Shale ,200,200,350,200,350,275,Shale,Brallier Fomation,1.63,,,,,,,
Sonyea Fm.: Cashaqua Shale/Middlesex Shale,30,30,97,30,97,63.5,Shale,Brallier Fomation,1.36,,,,,,,
Genesee Fm.: West RverShale/Geneseo Shale,10,10,68,10,68,39,Shale,Harrel Formation,1.58,,,,,,,
Tully Limestone,0,0,5,0,2.5,1.25,Limestone,In 50% of the column,2.91,,,,,,,
Mahantango Fm,0,0,10,0,7.5,3.75,"Shale, Mudstone, Siltstone",In 75% of the column,1.91,,,,,,,
Marcellus Shale,2,2,18,2,18,10,Shale,,1.34,,,,,,,
Onondaga Limestone / Huntersville Chert,40,40,86,40,86,63,Chert and Limestone,,3.52,,,,,,,
Oriskany Sandstone,12,12,25,12,25,18.5,Sandstone,,4.27,,,"White to brown coarse- to fine-grained, partly calcareous sandstone, locally pebbly or conglomeratic, and ridge-forming",,,,
Licking Creek Limestone,40,40,55,40,55,47.5,Carbonate (Limestone),,2.72,,,limestone; chert; shale; black shale; sandstone,,,,
Mandata Shale,10,10,10,10,10,10,Shale,,0.9,,,"Dark brown to black, thin-bedded shale; fossiliferous",,,,
upper Keyser Limestone,20,20,70,20,70,45,Carbonate (Limestone),,2.91,,,"Medium gray, medium-grained, medium-bedded limestone, interbedded with chert; fossiliferous",,,,
Bass Islands Dolomite OR Big Mountain Shale / Clifton Forge Sandstone,0,0,25,0,21,10.5,Carbonate & Shale & Sandstone,"40% dolomite, 35% sandstone, 25% shale",3.477952454,,,,,,,
"Salina ""C""-""G"" / middle Tonoloway limestone member OR lower Keyser Limestone/Tonoloway Limestone Gp./Wills Creek Fm.",230,230,255,240,252.5,246.25,Evaporite & Limestone,"60% Limestone, 35% Evaporite, 5% shale,mudstone,siltstone",2.021289422,,,"Dark gray, thin- to thick-bedded, fine- to coarse-grained calcarenite; contains nodular limestone, dolomitic limestone, and calcarous shale; cherty near top",,,,
Newburg Sandstone,10,10,13,10,13,11.5,Sandstone,,4.27,,,,,,,
"Salina ""A""-""B""/Lockport Dolomite OR McKenzie Fm.",130,130,210,130,180,155,Carbonate,,2.792509171,,,,,,,
Rochester Shale/Keefer Sandstone or Keefer Sandstone,10,10,16,9.4,15.4,12.4,"Sandstone, Shale",Shale is 3 m (~20%),2.46,,,white sandstone,,,,
Rose Hill Fm. w/Cacapon Sandstone and Dayton Dolomite interbedded,160,160,193,160,185.5,172.75,"Shale, Mudstone, Siltstone","Sandstone is ~10%, dolomite is <1%.",1.95,,,"predominantly red shale, with thin sandstone interbeds, some of which are called ""iron sandstones"" from their reddish-brown color and hematite content",,,,
Brassfield Dolomite/Cabot Head Shale/Tuscarora OR Tuscarora Sandstone,30,30,87,30,74.8,52.4,Carbonate/Sandstone,80%sandstone,3.462,,,"Tuscarora: white to gray or pinkish sandstone, fine to coarse, quartzitic",,,,
Juniata Fm.,200,200,400,200,400,300,"Interbedded Ss, Slt, Sh",,2.68,,,Dusky-red shale and mudstone and sandstone,,,,
Martinsburg Fm.,500,500,800,500,800,650,"Shale, Mudstone, Siltstone",,1.50,,,"predominantly gray to dark shale, yellowish in the upper portion. Contains scattered thin limestone and sandstone interbeds",,,,
Trenton Limestone,300,300,300,300,300,300,Carbonate,,2.91,,,,,,,
Black River Limestone,400,400,400,400,400,400,Carbonate,,2.91,,,predominantly gray aphanitic limestones,,,,
Wells Creek Fm.,300,300,-300,300,300,300,Carbonate,,1.99,,,,,,,
St. Peter Sandstone (Rose Run),0,0,13,0,6.5,3.25,Sandstone,In 50% of the column,4.27,,,,,,,
Beekmantown Fm.,270,270,270,270,270,270,Carbonate,,3.42,,,mainly thick-bedded limestone and dolomite,,,,
Copper Ridge Fm.,200,200,400,200,400,300,Carbonate,,4.50,,,Dolomite,,,,
Conasauga Gp.: Maynardville Limestone(30m)/Nolichucky Shale(75)/Maryville Limestone(330),300,300,400,300,400,350,Limestone and Shale,"From Plate 12A in Rome Trough Consortium Final Report. Note that their scale is in ft., so I converted to meters here. The Conasauga reduces in thickness east of the Eastern-Margin Fault.",2.50,,,Dolomite,,,,
Tomstown Dolomite,30.48,30.48,200,30.48,200,115.24,Carbonate,"Minimum from Plate 12A in Rome Trough Consortium Final Report. Note that their scale is in ft., so I converted to meters here.",4.50,,,,,,,
Basal Sandstone,0,0,10,0,10,5,Sandstone,"From Plate 12A in Rome Trough Consortium Final Report. Note that their scale is in ft., so I converted to meters here.",4.27,,,,,,,
,,,,,,,,,,,,,,,,
Total Thickness,,,,5567.53,8151.95,6859.74,,,,,,,,,,
,,,,,,,,http://mrdata.usgs.gov/geology/state/fips-unit.php?state=WV,,,,,,,,
,,,,,,,,,,,,,,,,
,,,,,,,,,,,,,,,,
,,,,,,,,,,,,,,,,
