Unit,ColumnMin,Min,Max,Min(avg),Max(avg),Assumed,Rock type,Notes,Carter Conductivity,,,USGS Lithology,,,pink,Evaporite
Dunkard Gp.: Greene Fm./Washington Fm./Waynesburg Fm.,350,350,350,350,350,350,"Interbedded Ss, Slt, Sh",USGS Cross Section E-E' shows that Dunkard Group is greater thickness ,2.59,,,,,,blue,Carbonate
Monongahela Gp,76,76,91,76,91,83.5,"Shale, Mudstone, Siltstone",,2.3,,,,,,gray,"Shale, Mudstone, Siltstone"
Conemaugh Group,122,122,183,122,183,152.5,"Interbedded Ss, Slt, Sh",Small amount of Mahoning Sandstone,1.94,,,,,,yellow,Sandstone
Allegheny Fm.,69,69,91,69,91,80,"Interbedded Ss, Slt, Sh",,2.37,,,,,,orange,Conglomerate
Pottsville Gp.,49,49,76,49,76,62.5,"Interbedded Ss, Slt, Sh",,2.66,,,,,,lt. brown,"Interbedded Ss, Slt, Sh"
Mauch Chunk Gp.,0,0,40,0,20,10,"Interbedded Ss, Slt, Sh",Only in 1/2 the column,1.6,,,,,,dk brown,Metamorphic
Greenbrier Limestone,0,0,46,0,46,23,Limestone,,2.71,,,,,,green,Volcanic
"Pocono Gp.: Pocono sandstone, Sunbury Shale, Price Formation",154,154,185,154,185,169.5,"Interbedded Ss, Slt, Sh",Formation names from USGS Cross Section E-E'.,2.67,,,,,,teal ,Chert
Ohio Shale OR Cleaveland Shale/Chagrin Shale/Huron Shale,110,110,776,160.5,636.95,398.725,Shale,,1.5,,,,,,,
Java Fm.,34,34,60,34,60,47,"Shale, Mudstone, Siltstone",,1.76,,,,,,,
West Falls Fm.: Angola mbr/Rhinestreet mbr,85,85,350,85,350,217.5,"Shale, Mudstone, Siltstone",,1.7,,,,,,,
Sonyea Fm.: Cashagua mbr/Middlesex mbr,0,0,73,0,54.75,27.375,"Shale, Mudstone, Siltstone",In 75% of the column,1.36,,,,,,,
Genesee Fm.: West River mbr/Geneseo mbr,0,0,46,0,34.5,17.25,"Shale, Mudstone, Siltstone",In 75% of the column,1.55,,,,,,,
Tully Limestone,0,0,8,0,1.6,0.8,Limestone,In 20% of the column,2.91,,,,,,,
Manhatango Fm.,0,0,30,0,18,9,"Shale, Mudstone, Siltstone",In 60% of the column,1.91,,,,,,,
Marcellus Shale,0,0,15,0,11.25,5.625,Shale,In 75% of the column,1.34,,,,,,,
Onondaga Limestone / Huntersville Chert,5,5,70,37.5,46,41.75,Limestone and Chert,80%chert,4.01,,,,,,,
Oriskany Sandstone,2,2,30,2,30,16,Sandstone,,4.27,,,,,,,
"Hederberg Gp./Salina ""H"" OR ""Shriver"" Fm./Mandata Shale/""upper Keyser"" Limestone",46,46,147,109.7,141.9,125.8,Carbonate & Evaporite,,2.51,,,,,,,
Bass Islands Dolomite,8,8,8,8,8,8,Dolomite,,2.7,,,,,,,
lower Keyser Limestone,0,0,10,0,2.5,1.25,Limestone,,2.91,,,,,,,
"Salina ""G""",50,50,80,50,80,65,Evaporite,,2.04,,,,,,,
"Salina ""F""",70,70,150,70,150,110,Evaporite,,2.04,,,,,,,
"Salina ""D"" - ""E""",50,50,100,50,100,75,Evaporite,,2.04,,,,,,,
"Salina ""A"" - ""C""",50,50,100,50,100,75,Carbonate,,2.04,,,,,,,
"Lockport Dolomite, moreso McKenzie Limestone",100,100,100,100,100,100,Dolomite,,3.15,,,,,,,
Keefer Sandstone,13,13,20,13,20,16.5,Sandstone,,2.46,,,,,,,
Rose Hill Fm.,100,100,160,100,160,130,"Interbedded Ss, Slt, Sh",,1.95,,,,,,,
Brassfield Dolomite,5,5,8,5,8,6.5,Dolomite,,4.5,,,,,,,
Cabot Head Shale,17,17,50,17,50,33.5,Shale,,1.5,,,,,,,
Tuscarora Sandstone (aka Clinton Sandstone),10,10,60,10,60,35,Sandstone,,4.15,,,,,,,
Juniata Fm. (aka Queenston Shale),80,80,255,80,255,167.5,"Shale, Mudstone, Siltstone",,2.68,,,"the Juniata is a thin-bedded, blocky, red sandstone and shale",,,,
Martinsburg Fm. (Includes Utica Shale and Cincinatti group or Reedsville Shale),300,300,400,300,400,350,"Shale, Mudstone, Siltstone",,1.5,,,,,,,
Trenton Limestone,60,60,270,60,270,165,Limestone,,2.91,,,,,,,
Black River Limestone,80,80,380,80,380,230,Limestone,,2.91,,,,,,,
Wells Creek Fm. OR unnamed anhydritic dolomite,25,25,250,25,250,137.5,Carbonate,,5.59,,,,,,,
Glenwood Shale,0,0,10,0,5,2.5,Shale,,1.5,,,,,,,
St. Peter Sandstone,0,0,11,0,5.5,2.75,Sandstone,,4.27,,,,,,,
Knox Group: Beekmantown/Rose Run Sandstone/Copper Ridge Dolomite,530,530,700,545,700,622.5,Carbonate,Sandstone is 10%,3.99,,,,,,,
Conasauga Fm,500,500,3000,500,3000,1750,Carbonate,Minimum thickness drastically increased based on ,3.01,,,,,,,
Waynesboro Fm.,50,50,150,50,150,100,"Interbedded Ss, Slt, Sh",Added from USGS Cross Section E-E'.,1.95,,,variegated shale,,,,
Tomstown Dolomite,100,100,140,100,140,120,Dolomite,,4.5,,,,,,,
basal sandstone Chilhowee Gp.,30,30,70,30,70,50,Sandstone,"Formation names and thicknesses from USGS E-E' cross section, wells 10 and 11.",4.27,,,,,,,
Total Thickness,,,,3491.7,8890.95,6191.325,,,,,,,,,,
